{
  "luis_schema_version": "2.0.0",
  "versionId": "0.1",
  "name": "CompanyPolicy",
  "desc": "",
  "culture": "en-us",
  "intents": [
    {
      "name": "GetCommunication"
    },
    {
      "name": "GetDressCode"
    },
    {
      "name": "GetDressCodeFormalFemale"
    },
    {
      "name": "GetDressCodeFormalMale"
    },
    {
      "name": "GetEffortTracking"
    },
    {
      "name": "GetLeave"
    },
    {
      "name": "GetLeaveAnnualHoliday"
    },
    {
      "name": "GetLeaveCasual"
    },
    {
      "name": "GetLeaveCompensatory"
    },
    {
      "name": "GetLeaveLOP"
    },
    {
      "name": "GetLeaveMaternity"
    },
    {
      "name": "GetLeavePaternity"
    },
    {
      "name": "GetLeavePrivilege"
    },
    {
      "name": "GetLeavePrivilegeEncashment"
    },
    {
      "name": "GetLeaveSick"
    },
    {
      "name": "GetLeaveSpecial"
    },
    {
      "name": "GetLeaveUA"
    },
    {
      "name": "GetPurpose"
    },
    {
      "name": "GetRetirement"
    },
    {
      "name": "GetScope"
    },
    {
      "name": "GetTermination"
    },
    {
      "name": "GetWorkSchedule"
    },
    {
      "name": "None"
    }
  ],
  "entities": [],
  "composites": [],
  "closedLists": [],
  "bing_entities": [],
  "actions": [],
  "model_features": [],
  "regex_features": [],
  "utterances": [
    {
      "text": "what is the sick leave policy",
      "intent": "GetLeaveSick",
      "entities": []
    },
    {
      "text": "what is the privileged leaves policy",
      "intent": "GetLeavePrivilege",
      "entities": []
    },
    {
      "text": "what is a privilege leave",
      "intent": "GetLeavePrivilege",
      "entities": []
    },
    {
      "text": "what is the policy on loss of pay",
      "intent": "GetLeaveLOP",
      "entities": []
    },
    {
      "text": "what is the policy on lop",
      "intent": "GetLeaveLOP",
      "entities": []
    },
    {
      "text": "how many casual leaves in a year",
      "intent": "GetLeaveCasual",
      "entities": []
    },
    {
      "text": "what is a normal unplanned leave called ?",
      "intent": "GetLeaveCasual",
      "entities": []
    },
    {
      "text": "what is policy on maternity leaves",
      "intent": "GetLeaveMaternity",
      "entities": []
    },
    {
      "text": "how many days of paternity leaves",
      "intent": "GetLeavePaternity",
      "entities": []
    },
    {
      "text": "hi",
      "intent": "None",
      "entities": []
    },
    {
      "text": "2",
      "intent": "None",
      "entities": []
    },
    {
      "text": "c",
      "intent": "None",
      "entities": []
    },
    {
      "text": "lever",
      "intent": "None",
      "entities": []
    },
    {
      "text": "leaver",
      "intent": "None",
      "entities": []
    },
    {
      "text": "whatpolicy",
      "intent": "None",
      "entities": []
    },
    {
      "text": "kfjldfjg",
      "intent": "None",
      "entities": []
    },
    {
      "text": "what about the sick leave policy",
      "intent": "GetLeaveSick",
      "entities": []
    },
    {
      "text": "the sick leave policy",
      "intent": "GetLeaveSick",
      "entities": []
    },
    {
      "text": "sick leave policy",
      "intent": "GetLeaveSick",
      "entities": []
    },
    {
      "text": "what is ?",
      "intent": "None",
      "entities": []
    },
    {
      "text": "what is the leave policy",
      "intent": "GetLeave",
      "entities": []
    },
    {
      "text": "what is the leav e policy",
      "intent": "GetLeave",
      "entities": []
    },
    {
      "text": "what is the leaves policy",
      "intent": "GetLeave",
      "entities": []
    },
    {
      "text": "leave",
      "intent": "GetLeave",
      "entities": []
    },
    {
      "text": "leaves",
      "intent": "GetLeave",
      "entities": []
    },
    {
      "text": "leave policy",
      "intent": "GetLeave",
      "entities": []
    },
    {
      "text": "the leave policy",
      "intent": "GetLeave",
      "entities": []
    },
    {
      "text": "what is the policy on leaves",
      "intent": "GetLeave",
      "entities": []
    },
    {
      "text": "what is the casual leave policy",
      "intent": "GetLeaveCasual",
      "entities": []
    },
    {
      "text": "casual",
      "intent": "GetLeaveCasual",
      "entities": []
    },
    {
      "text": "causal",
      "intent": "GetLeaveCasual",
      "entities": []
    },
    {
      "text": "casual leave policy",
      "intent": "GetLeaveCasual",
      "entities": []
    },
    {
      "text": "casual leaves in a year",
      "intent": "GetLeaveCasual",
      "entities": []
    },
    {
      "text": "what is the casual leavepolicy",
      "intent": "GetLeaveCasual",
      "entities": []
    },
    {
      "text": "casual leave",
      "intent": "GetLeaveCasual",
      "entities": []
    },
    {
      "text": "tell me about casual leaves",
      "intent": "GetLeaveCasual",
      "entities": []
    },
    {
      "text": "tell me more about the casual leaves",
      "intent": "GetLeaveCasual",
      "entities": []
    },
    {
      "text": "whats the deal with casual leaves in the company",
      "intent": "GetLeaveCasual",
      "entities": []
    },
    {
      "text": "i want to know about the casual leaves",
      "intent": "GetLeaveCasual",
      "entities": []
    },
    {
      "text": "how many sick leaves",
      "intent": "GetLeaveSick",
      "entities": []
    },
    {
      "text": "sick leave",
      "intent": "GetLeaveSick",
      "entities": []
    },
    {
      "text": "how many sick leaves in a year",
      "intent": "GetLeaveSick",
      "entities": []
    },
    {
      "text": "what is the sick leaves policy",
      "intent": "GetLeaveSick",
      "entities": []
    },
    {
      "text": "please tell me about sick leaves",
      "intent": "GetLeaveSick",
      "entities": []
    },
    {
      "text": "tell me about the sick leaves",
      "intent": "GetLeaveSick",
      "entities": []
    },
    {
      "text": "tell me more about the sick leaves",
      "intent": "GetLeaveSick",
      "entities": []
    },
    {
      "text": "please tell me the sick leave policy",
      "intent": "GetLeaveSick",
      "entities": []
    },
    {
      "text": "what about sick leaves",
      "intent": "GetLeaveSick",
      "entities": []
    },
    {
      "text": "what is the policy on sick leaves",
      "intent": "GetLeaveSick",
      "entities": []
    },
    {
      "text": "i want to know about the sick leaves",
      "intent": "GetLeaveSick",
      "entities": []
    },
    {
      "text": "whats the deal with sick leaves in the company",
      "intent": "GetLeaveSick",
      "entities": []
    },
    {
      "text": "tell me about the sick leave policy",
      "intent": "GetLeaveSick",
      "entities": []
    },
    {
      "text": "whta is the sick leave policy",
      "intent": "GetLeaveSick",
      "entities": []
    },
    {
      "text": "what is the policy on sick leave",
      "intent": "GetLeaveSick",
      "entities": []
    },
    {
      "text": "what is policy for lop",
      "intent": "GetLeaveLOP",
      "entities": []
    },
    {
      "text": "what is the policy for loss of pay",
      "intent": "GetLeaveLOP",
      "entities": []
    },
    {
      "text": "what is the loss of pay policy",
      "intent": "GetLeaveLOP",
      "entities": []
    },
    {
      "text": "lop policy",
      "intent": "GetLeaveLOP",
      "entities": []
    },
    {
      "text": "maternity leave policy",
      "intent": "GetLeaveMaternity",
      "entities": []
    },
    {
      "text": "how many leaves can be availed for maternity",
      "intent": "GetLeaveMaternity",
      "entities": []
    },
    {
      "text": "what is the policy on paternity leaves",
      "intent": "GetLeavePaternity",
      "entities": []
    },
    {
      "text": "how many paternity leaves",
      "intent": "GetLeavePaternity",
      "entities": []
    },
    {
      "text": "paternity leaves policy",
      "intent": "GetLeavePaternity",
      "entities": []
    },
    {
      "text": "what is the privilege leave policy",
      "intent": "GetLeavePrivilege",
      "entities": []
    },
    {
      "text": "what is privilege leave",
      "intent": "GetLeavePrivilege",
      "entities": []
    },
    {
      "text": "how many privilege leaves in a year",
      "intent": "GetLeavePrivilege",
      "entities": []
    },
    {
      "text": "how to get privilege leaves",
      "intent": "GetLeavePrivilege",
      "entities": []
    },
    {
      "text": "can we take privilege leave as half day",
      "intent": "GetLeavePrivilegeEncashment",
      "entities": []
    },
    {
      "text": "how to encash privilege leaves",
      "intent": "GetLeavePrivilegeEncashment",
      "entities": []
    },
    {
      "text": "how many privilege leaves can be encashed",
      "intent": "GetLeavePrivilegeEncashment",
      "entities": []
    },
    {
      "text": "how to surrender privilege leaves",
      "intent": "GetLeavePrivilegeEncashment",
      "entities": []
    },
    {
      "text": "how to exchange privilege leaves for cash",
      "intent": "GetLeavePrivilegeEncashment",
      "entities": []
    },
    {
      "text": "what is a special off",
      "intent": "GetLeaveSpecial",
      "entities": []
    },
    {
      "text": "what is the policy on special off",
      "intent": "GetLeaveSpecial",
      "entities": []
    },
    {
      "text": "how to apply for special off",
      "intent": "GetLeaveSpecial",
      "entities": []
    },
    {
      "text": "how to get special off",
      "intent": "GetLeaveSpecial",
      "entities": []
    },
    {
      "text": "what is a compensatory leave",
      "intent": "GetLeaveCompensatory",
      "entities": []
    },
    {
      "text": "whats the policy on compensatory leaves",
      "intent": "GetLeaveCompensatory",
      "entities": []
    },
    {
      "text": "what is the policy on compensatory leaves",
      "intent": "GetLeaveCompensatory",
      "entities": []
    },
    {
      "text": "when can i apply for compensatory leaves",
      "intent": "GetLeaveCompensatory",
      "entities": []
    },
    {
      "text": "when can i take compensatory leaves",
      "intent": "GetLeaveCompensatory",
      "entities": []
    },
    {
      "text": "what is compensatory leave policy",
      "intent": "GetLeaveCompensatory",
      "entities": []
    },
    {
      "text": "till when can i avail a compensatory leave",
      "intent": "GetLeaveCompensatory",
      "entities": []
    },
    {
      "text": "how long is compensatory leaves valid",
      "intent": "GetLeaveCompensatory",
      "entities": []
    },
    {
      "text": "what is the policy about working on a public holiday",
      "intent": "GetLeaveAnnualHoliday",
      "entities": []
    },
    {
      "text": "what is policy for working on holidays",
      "intent": "GetLeaveAnnualHoliday",
      "entities": []
    },
    {
      "text": "what is the company policy on holidays",
      "intent": "GetLeaveAnnualHoliday",
      "entities": []
    },
    {
      "text": "what are the annual holidays",
      "intent": "GetLeaveAnnualHoliday",
      "entities": []
    },
    {
      "text": "how many annual holidays are there",
      "intent": "GetLeaveAnnualHoliday",
      "entities": []
    },
    {
      "text": "what is the policy on dress code",
      "intent": "GetDressCode",
      "entities": []
    },
    {
      "text": "what is the dress code in the company",
      "intent": "GetDressCode",
      "entities": []
    },
    {
      "text": "what is dress code policy",
      "intent": "GetDressCode",
      "entities": []
    },
    {
      "text": "what should be the dress",
      "intent": "GetDressCode",
      "entities": []
    },
    {
      "text": "what is the dressing policy",
      "intent": "GetDressCode",
      "entities": []
    },
    {
      "text": "what dress should i wear to the company",
      "intent": "GetDressCode",
      "entities": []
    },
    {
      "text": "what is the policy dresses",
      "intent": "GetDressCode",
      "entities": []
    },
    {
      "text": "what is formal dress for men",
      "intent": "GetDressCodeFormalMale",
      "entities": []
    },
    {
      "text": "what is formals for men",
      "intent": "GetDressCodeFormalMale",
      "entities": []
    },
    {
      "text": "male formal dressing policy",
      "intent": "GetDressCodeFormalMale",
      "entities": []
    },
    {
      "text": "what is formal dressing for men",
      "intent": "GetDressCodeFormalMale",
      "entities": []
    },
    {
      "text": "policy for mens formal dress",
      "intent": "GetDressCodeFormalMale",
      "entities": []
    },
    {
      "text": "what is policy on formal dress for men",
      "intent": "GetDressCodeFormalMale",
      "entities": []
    },
    {
      "text": "what is formal dress for girls",
      "intent": "GetDressCodeFormalFemale",
      "entities": []
    },
    {
      "text": "what is formal for females",
      "intent": "GetDressCodeFormalFemale",
      "entities": []
    },
    {
      "text": "what is the formal dress for women",
      "intent": "GetDressCodeFormalFemale",
      "entities": []
    },
    {
      "text": "example of formal dress for women",
      "intent": "GetDressCodeFormalFemale",
      "entities": []
    },
    {
      "text": "formal dress for women",
      "intent": "GetDressCodeFormalFemale",
      "entities": []
    },
    {
      "text": "formal dress for woman",
      "intent": "GetDressCodeFormalFemale",
      "entities": []
    },
    {
      "text": "formal dress for girl",
      "intent": "GetDressCodeFormalFemale",
      "entities": []
    },
    {
      "text": "formal dresses for females",
      "intent": "GetDressCodeFormalFemale",
      "entities": []
    },
    {
      "text": "formal dress for girls",
      "intent": "GetDressCodeFormalFemale",
      "entities": []
    },
    {
      "text": "what is the formal wear for women",
      "intent": "GetDressCodeFormalFemale",
      "entities": []
    },
    {
      "text": "whats the purpose",
      "intent": "GetPurpose",
      "entities": []
    },
    {
      "text": "what is the purpose",
      "intent": "GetPurpose",
      "entities": []
    },
    {
      "text": "what is the purpose of the organization",
      "intent": "GetPurpose",
      "entities": []
    },
    {
      "text": "what is the purpose of the company",
      "intent": "GetPurpose",
      "entities": []
    },
    {
      "text": "what is the purpose for the organization",
      "intent": "GetPurpose",
      "entities": []
    },
    {
      "text": "what is the work schedule",
      "intent": "GetWorkSchedule",
      "entities": []
    },
    {
      "text": "how is the work schedule",
      "intent": "GetWorkSchedule",
      "entities": []
    },
    {
      "text": "tell me more about the work schedule",
      "intent": "GetWorkSchedule",
      "entities": []
    },
    {
      "text": "what is the scope",
      "intent": "GetScope",
      "entities": []
    },
    {
      "text": "what is the policy on communication",
      "intent": "GetCommunication",
      "entities": []
    },
    {
      "text": "what is the policy on unauthorized absense",
      "intent": "GetLeaveUA",
      "entities": []
    },
    {
      "text": "what is the policy on unnoticed leaves",
      "intent": "GetLeaveUA",
      "entities": []
    },
    {
      "text": "what if a leave is not unauthorized",
      "intent": "GetLeaveUA",
      "entities": []
    },
    {
      "text": "what happens if a leave is not reported",
      "intent": "GetLeaveUA",
      "entities": []
    },
    {
      "text": "timesheet policy",
      "intent": "GetEffortTracking",
      "entities": []
    },
    {
      "text": "what is the policy on entering task efforts",
      "intent": "GetEffortTracking",
      "entities": []
    },
    {
      "text": "what is the policy about entering timesheets",
      "intent": "GetEffortTracking",
      "entities": []
    },
    {
      "text": "how is effort tracking done",
      "intent": "GetEffortTracking",
      "entities": []
    },
    {
      "text": "what is the policy on timesheets",
      "intent": "GetEffortTracking",
      "entities": []
    },
    {
      "text": "how does an employee get terminated",
      "intent": "GetTermination",
      "entities": []
    },
    {
      "text": "getting fired",
      "intent": "GetTermination",
      "entities": []
    },
    {
      "text": "policy on employee firing",
      "intent": "GetTermination",
      "entities": []
    },
    {
      "text": "how will one get fired",
      "intent": "GetTermination",
      "entities": []
    },
    {
      "text": "termination of employment",
      "intent": "GetTermination",
      "entities": []
    },
    {
      "text": "firing employees",
      "intent": "GetTermination",
      "entities": []
    },
    {
      "text": "what is the policy on termination",
      "intent": "GetTermination",
      "entities": []
    },
    {
      "text": "what is the policy on retirement",
      "intent": "GetRetirement",
      "entities": []
    },
    {
      "text": "what is the age for retirement",
      "intent": "GetRetirement",
      "entities": []
    }
  ]
}